{
  "titles": [
    {
      "name": "Уроки",
      "width": 130,
      "field": "name"
    },
    {
      "name": "Стоимость",
      "width": 120,
      "field": "price"
    }
  ],
  "data": [
    {
      "name": "Вокал (эстрадно-джазовый)",
      "price": "200 грн./час"
    },
    {
      "name": "Ударная установка",
      "price": "200 грн./час"
    },
    {
      "name": "Гитара",
      "price": "200 грн./час"
    },
    {
      "name": "Бас-гитара",
      "price": "200 грн./час"
    },
    {
      "name": "Клавишные",
      "price": "200 грн./час"
    },
    {
      "name": "Саксофон",
      "price": "200 грн./час"
    },
    {
      "name": "Труба",
      "price": "200 грн./час"
    },
    {
      "name": "Кларнет",
      "price": "200 грн./час"
    },
    {
      "name": "Джембе",
      "price": "200 грн./час"
    }
  ]
}
